<svg width="40" height="40" viewBox="0 0 40 40" fill="none" xmlns="http://www.w3.org/2000/svg">
<g clip-path="url(#clip0_362_232)">
<path fill-rule="evenodd" clip-rule="evenodd" d="M29.4104 9.15051C29.7178 9.01724 30.0542 8.97128 30.3847 9.0174C30.7152 9.06353 31.0276 9.20005 31.2895 9.41277C31.5514 9.62549 31.7531 9.90663 31.8737 10.2269C31.9943 10.5472 32.0294 10.8949 31.9753 11.2339L29.1542 28.8608C28.8805 30.5611 27.0695 31.5362 25.5557 30.6893C24.2895 29.9807 22.4088 28.889 20.7171 27.75C19.8713 27.1798 17.2803 25.3539 17.5988 24.0547C17.8724 22.9438 22.2259 18.7693 24.7136 16.2874C25.6901 15.3123 25.2448 14.7498 24.0917 15.6467C21.2271 17.8736 16.631 21.2601 15.111 22.2134C13.7702 23.054 13.0711 23.1975 12.2353 23.054C10.7103 22.7926 9.29602 22.3877 8.14172 21.8944C6.58192 21.2281 6.6578 19.0191 8.14048 18.3759L29.4104 9.15051Z" fill="#F7F7F7"/>
</g>
<defs>
<clipPath id="clip0_362_232">
<rect width="40" height="40" fill="white"/>
</clipPath>
</defs>
</svg>
