<svg width="40" height="40" viewBox="0 0 40 40" fill="none" xmlns="http://www.w3.org/2000/svg">
<path d="M31.9138 27.9987H28.9587C27.8407 27.9987 27.5039 27.0954 25.4998 25.095C23.7483 23.4112 23.0085 23.2018 22.5655 23.2018C21.9527 23.2018 21.7856 23.3698 21.7856 24.2111V26.8628C21.7856 27.58 21.5524 28 19.6739 28C17.8516 27.8779 16.0843 27.3256 14.5178 26.3887C12.9513 25.4519 11.6304 24.1571 10.6638 22.6113C8.36866 19.7618 6.77174 16.4175 6 12.8443C6 12.4024 6.16841 12.0018 7.01308 12.0018H9.9668C10.726 12.0018 10.9993 12.339 11.2973 13.1183C12.7314 17.3285 15.1786 20.9908 16.1722 20.9908C16.5531 20.9908 16.7189 20.8228 16.7189 19.8755V15.5387C16.5933 13.5602 15.54 13.3935 15.54 12.6776C15.5533 12.4887 15.64 12.3125 15.7815 12.1863C15.923 12.0601 16.1082 11.9939 16.2979 12.0018H20.9409C21.5757 12.0018 21.7856 12.3171 21.7856 13.0743V18.9283C21.7856 19.5602 22.0576 19.7696 22.2494 19.7696C22.6303 19.7696 22.923 19.5602 23.6213 18.865C25.1181 17.0442 26.3409 15.0155 27.2513 12.843C27.3445 12.5822 27.5206 12.3589 27.7529 12.2072C27.9852 12.0556 28.2608 11.9839 28.5377 12.003H31.4927C32.3788 12.003 32.5667 12.445 32.3788 13.0756C31.3041 15.4772 29.9742 17.7569 28.412 19.8755C28.0933 20.3601 27.9664 20.6121 28.412 21.1807C28.7048 21.6227 29.7412 22.4859 30.4369 23.3065C31.45 24.3145 32.2907 25.4801 32.9268 26.7568C33.1808 27.5787 32.7571 27.9987 31.9138 27.9987Z" fill="#F7F7F7"/>
</svg>
