<svg width="40" height="40" viewBox="0 0 40 40" fill="none" xmlns="http://www.w3.org/2000/svg">
<path d="M20 7C27.1799 7 33 12.8201 33 20C33 27.1799 27.1799 33 20 33C17.7026 33.0037 15.4457 32.3957 13.461 31.2385L7.00522 33L8.76282 26.5416C7.60464 24.5563 6.99618 22.2984 7.00002 20C7.00002 12.8201 12.8201 7 20 7ZM15.5696 13.89L15.3096 13.9004C15.1413 13.9106 14.9768 13.9549 14.826 14.0304C14.685 14.1103 14.5563 14.2101 14.4438 14.3268C14.2878 14.4737 14.1994 14.6011 14.1045 14.7246C13.6237 15.3498 13.3648 16.1173 13.3687 16.906C13.3713 17.543 13.5377 18.1631 13.7977 18.7429C14.3294 19.9155 15.2043 21.157 16.3587 22.3075C16.6369 22.5844 16.9099 22.8626 17.2037 23.1213C18.6381 24.3842 20.3474 25.2949 22.1957 25.7811L22.9341 25.8942C23.1746 25.9072 23.4151 25.889 23.6569 25.8773C24.0355 25.8577 24.4052 25.7552 24.7398 25.577C24.91 25.4893 25.0762 25.3939 25.2377 25.291C25.2377 25.291 25.2936 25.2546 25.4002 25.174C25.5757 25.044 25.6836 24.9517 25.8292 24.7996C25.9371 24.6878 26.0307 24.5565 26.1022 24.407C26.2036 24.1951 26.305 23.7908 26.3466 23.4541C26.3778 23.1967 26.3687 23.0563 26.3648 22.9692C26.3596 22.8301 26.2439 22.6858 26.1178 22.6247L25.3612 22.2854C25.3612 22.2854 24.2302 21.7927 23.5386 21.4781C23.4662 21.4465 23.3887 21.4284 23.3098 21.4248C23.2209 21.4157 23.131 21.4257 23.0462 21.4541C22.9615 21.4826 22.8838 21.5289 22.8184 21.5899C22.8119 21.5873 22.7248 21.6614 21.7849 22.8002C21.731 22.8727 21.6567 22.9275 21.5715 22.9576C21.4863 22.9877 21.394 22.9917 21.3065 22.9692C21.2218 22.9465 21.1388 22.9178 21.0582 22.8834C20.897 22.8158 20.8411 22.7898 20.7306 22.743C19.9845 22.4174 19.2937 21.9775 18.6831 21.4391C18.5193 21.2961 18.3672 21.1401 18.2112 20.9893C17.6998 20.4995 17.2541 19.9454 16.8852 19.3409L16.8085 19.2174C16.7534 19.1344 16.7089 19.0449 16.6759 18.9509C16.6265 18.7598 16.7552 18.6064 16.7552 18.6064C16.7552 18.6064 17.0711 18.2606 17.218 18.0734C17.361 17.8914 17.4819 17.7146 17.5599 17.5885C17.7133 17.3415 17.7614 17.088 17.6808 16.8917C17.3168 16.0025 16.9398 15.1172 16.5524 14.2384C16.4757 14.0642 16.2482 13.9394 16.0415 13.9147C15.9713 13.9069 15.9011 13.8991 15.8309 13.8939C15.6563 13.8852 15.4814 13.887 15.307 13.8991L15.5683 13.8887L15.5696 13.89Z" fill="#F7F7F7"/>
</svg>
