<svg width="21" height="10" viewBox="0 0 21 10" fill="none" xmlns="http://www.w3.org/2000/svg">
<path d="M20.3536 5.85355C20.5488 5.65829 20.5488 5.34171 20.3536 5.14645L17.1716 1.96447C16.9763 1.7692 16.6597 1.7692 16.4645 1.96447C16.2692 2.15973 16.2692 2.47631 16.4645 2.67157L19.2929 5.5L16.4645 8.32843C16.2692 8.52369 16.2692 8.84027 16.4645 9.03553C16.6597 9.2308 16.9763 9.2308 17.1716 9.03553L20.3536 5.85355ZM0 6H20V5H0V6Z" fill="#F7F7F7"/>
</svg>
