<svg width="40" height="40" viewBox="0 0 40 40" fill="none" xmlns="http://www.w3.org/2000/svg">
<path d="M28.783 14.4058C28.7641 14.2664 28.6932 14.1386 28.5837 14.0463C28.4741 13.9541 28.3335 13.9038 28.1883 13.905H24.9118V12.754C24.9118 11.4931 24.3943 10.2839 23.4732 9.3924C22.552 8.50086 21.3027 8 20 8C18.6973 8 17.448 8.50086 16.5268 9.3924C15.6057 10.2839 15.0882 11.4931 15.0882 12.754V13.905H11.8057C11.6605 13.9038 11.5199 13.9541 11.4104 14.0463C11.3008 14.1386 11.2299 14.2664 11.2111 14.4058L9.00492 30.6014C8.9937 30.6854 9.00173 30.7707 9.02845 30.8512C9.05518 30.9318 9.09993 31.0057 9.15953 31.0676C9.40928 31.3266 9.68282 31.5914 9.98015 31.8504C10.0892 31.9463 10.2312 31.9996 10.3786 32H29.6214C29.7688 31.9996 29.9108 31.9463 30.0198 31.8504C30.3112 31.5914 30.6145 31.3266 30.8405 31.0676C30.9001 31.0057 30.9448 30.9318 30.9715 30.8512C30.9983 30.7707 31.0063 30.6854 30.9951 30.6014L28.783 14.4058ZM16.2953 12.7424C16.2953 11.7869 16.6875 10.8705 17.3856 10.1948C18.0837 9.51916 19.0306 9.13957 20.0178 9.13957C21.0051 9.13957 21.9519 9.51916 22.6501 10.1948C23.3482 10.8705 23.7403 11.7869 23.7403 12.7424V13.8935H16.2775L16.2953 12.7424ZM29.3776 30.8489H10.6105L10.218 30.4806L12.3231 15.0561H27.671L29.776 30.4806L29.3776 30.8489Z" fill="#1A1A1A"/>
</svg>
