<svg width="24" height="24" viewBox="0 0 24 24" fill="none" xmlns="http://www.w3.org/2000/svg">
<rect x="0.5" y="0.5" width="23" height="23" fill="white" stroke="#1A1A1A"/>
<rect x="4.5" y="4.5" width="15" height="15" fill="black" stroke="#1A1A1A"/>
<path d="M16 9L10.5 15L8 12.2727" stroke="#F7F7F7" stroke-linejoin="round"/>
</svg>
