<svg width="41" height="20" viewBox="0 0 41 20" fill="none" xmlns="http://www.w3.org/2000/svg">
<path d="M40.3536 12.3536C40.5488 12.1583 40.5488 11.8417 40.3536 11.6464L37.1716 8.46447C36.9763 8.2692 36.6597 8.2692 36.4645 8.46447C36.2692 8.65973 36.2692 8.97631 36.4645 9.17157L39.2929 12L36.4645 14.8284C36.2692 15.0237 36.2692 15.3403 36.4645 15.5355C36.6597 15.7308 36.9763 15.7308 37.1716 15.5355L40.3536 12.3536ZM0 12.5H40V11.5H0V12.5Z" fill="#1A1A1A"/>
</svg>
