<svg width="40" height="40" viewBox="0 0 40 40" fill="none" xmlns="http://www.w3.org/2000/svg">
<path d="M30.4453 40C27.3144 40 25.0472 38.7179 23.6437 36.1538C22.2402 33.5897 21.5385 30.641 21.5385 27.3077C21.5385 25.3846 21.7544 23.2692 22.1862 20.9615C22.6181 18.6538 23.4278 16.3462 24.6154 14.0385C25.9109 11.6026 27.6923 9.23077 29.9595 6.92308C32.2267 4.48718 35.2497 2.17949 39.0283 0L40 1.73077C37.8408 4.16667 36.1134 6.28205 34.8178 8.07692C33.6302 9.87179 32.7126 11.5385 32.0648 13.0769C31.417 14.6154 30.9852 16.0256 30.7692 17.3077C30.6613 18.5897 30.6073 19.9359 30.6073 21.3462C30.6073 22.3718 30.8772 23.141 31.417 23.6538C31.9568 24.0385 32.5506 24.5513 33.1984 25.1923C34.17 25.9615 35.0337 26.7308 35.7895 27.5C36.6532 28.141 37.085 29.5513 37.085 31.7308C37.085 34.0385 36.4372 36.0256 35.1417 37.6923C33.8462 39.2308 32.2807 40 30.4453 40ZM9.06883 40C5.93792 40 3.61673 38.7179 2.10526 36.1538C0.701754 33.5897 0 30.641 0 27.3077C0 25.3846 0.215924 23.3333 0.647773 21.1538C1.07962 18.8462 1.94332 16.4744 3.23887 14.0385C4.53441 11.6026 6.31579 9.23077 8.583 6.92308C10.8502 4.48718 13.8731 2.17949 17.6518 0L18.6235 1.73077C16.4642 4.16667 14.7368 6.28205 13.4413 8.07692C12.2537 9.87179 11.336 11.5385 10.6883 13.0769C10.0405 14.6154 9.60864 16.0256 9.39271 17.3077C9.28475 18.5897 9.23077 19.9359 9.23077 21.3462C9.23077 22.3718 9.44669 23.141 9.87854 23.6538C10.4184 24.1667 11.0121 24.6154 11.6599 25C12.5236 25.641 13.3873 26.4103 14.251 27.3077C15.2227 28.0769 15.7085 29.5513 15.7085 31.7308C15.7085 34.0385 15.0607 36.0256 13.7652 37.6923C12.5776 39.2308 11.0121 40 9.06883 40Z" fill="#373737"/>
</svg>
