<svg width="24" height="24" viewBox="0 0 24 24" fill="none" xmlns="http://www.w3.org/2000/svg">
<g clip-path="url(#clip0_485_38)">
<path d="M17.7551 6.95512C17.9504 6.75985 17.9504 6.44327 17.7551 6.24801C17.5599 6.05275 17.2433 6.05275 17.048 6.24801L17.7551 6.95512ZM17.048 6.24801L6.24801 17.048L6.95512 17.7551L17.7551 6.95512L17.048 6.24801Z" fill="#F7F7F7"/>
<path d="M17.048 17.7551C17.2433 17.9504 17.5599 17.9504 17.7551 17.7551C17.9504 17.5599 17.9504 17.2433 17.7551 17.048L17.048 17.7551ZM6.24801 6.95512L17.048 17.7551L17.7551 17.048L6.95512 6.24801L6.24801 6.95512Z" fill="#F7F7F7"/>
</g>
<defs>
<clipPath id="clip0_485_38">
<rect width="24" height="24" fill="white"/>
</clipPath>
</defs>
</svg>
