<svg width="40" height="40" viewBox="0 0 40 40" fill="none" xmlns="http://www.w3.org/2000/svg">
<path d="M29.2265 11.7681C28.6645 11.2076 27.9972 10.7629 27.2628 10.4595C26.5284 10.1562 25.7412 10 24.9463 10C24.1513 10 23.3641 10.1562 22.6297 10.4595C21.8953 10.7629 21.228 11.2076 20.666 11.7681L19.4997 12.9309L18.3334 11.7681C17.1982 10.6364 15.6585 10.0006 14.0531 10.0006C12.4478 10.0006 10.9081 10.6364 9.77293 11.7681C8.63774 12.8999 8 14.4349 8 16.0354C8 17.6359 8.63774 19.1709 9.77293 20.3027L10.9393 21.4655L19.4997 30L28.0602 21.4655L29.2265 20.3027C29.7887 19.7424 30.2348 19.0771 30.5391 18.3449C30.8434 17.6128 31 16.828 31 16.0354C31 15.2429 30.8434 14.4581 30.5391 13.7259C30.2348 12.9937 29.7887 12.3284 29.2265 11.7681Z" stroke="#F7F7F7" stroke-linecap="round" stroke-linejoin="round"/>
</svg>
