<svg width="40" height="40" viewBox="0 0 40 40" fill="none" xmlns="http://www.w3.org/2000/svg">
<path d="M19 28C23.9706 28 28 23.9706 28 19C28 14.0294 23.9706 10 19 10C14.0294 10 10 14.0294 10 19C10 23.9706 14.0294 28 19 28Z" stroke="#F7F7F7" stroke-linecap="round" stroke-linejoin="round"/>
<path d="M30 30L26 26" stroke="#F7F7F7" stroke-linecap="round" stroke-linejoin="round"/>
</svg>
